16 ica-reshaping – COMP/STAT112 Notebook
…
# part c
# How can you obtain the dataset you sketched in part b?
#    pivot_longer()

# exercise 2
# To plot reaction time by day for each subject, we need to reshape the data into a long format where each row represents a subject/day combination. Specifically, we want a dataset with 3 columns and a first few rows

# part a
# Use pivot_longer() to create the long-format dataset. Show the first 3 lines (head(3)), which should be similar to those above. Follow-up: Thinking forward to plotting reaction time vs day for each subject, what would you like to fix / change about this dataset?

# For cols, try 2 appproaches: using - and starts_with
sleep_wide |> 
  pivot_longer(cols = -Subject, names_to = "day", values_to = "reaction time")

# A tibble: 180 × 3
   Subject day   `reaction time`
     <int> <chr>           <dbl>
 1     308 day_0            250.
 2     308 day_1            259.
 3     308 day_2            251.
 4     308 day_3            321.
 5     308 day_4            357.
 6     308 day_5            415.
 7     308 day_6            382.
 8     308 day_7            290.
 9     308 day_8            431.
10     308 day_9            466.
# ℹ 170 more rows
…
